REQUEST: {"phone":"9818087836","city":"New Delhi","name":"43","pin":"110039","address":"E-53 SECTOR-4 BAWANA INDUSTRIAL AREA NEW DELHI","country":"India","contact_person":"Debanjan Dey","email":"dmgsalesindia@gmail.com","registered_name":"DMGIndia"} 
RESPONSE: {"data":{"name":"33"},"success":false,"error":"ClientWarehouse already exists"}

 -----------------------------------------------------------------------1------------------------------------------------------------------------------------------------------------------REQUEST: {"phone":"9818087836","city":"New Delhi","name":"43","pin":"110039","address":"E-53 SECTOR-4 BAWANA INDUSTRIAL AREA NEW DELHI","country":"India","contact_person":"Debanjan Dey","email":"dmgsalesindia@gmail.com","registered_name":"DMGIndia"} 
RESPONSE: {"data":{"name":"29"},"success":false,"error":"ClientWarehouse already exists"}

 -----------------------------------------------------------------------2------------------------------------------------------------------------------------------------------------------REQUEST: {"phone":"9818087836","city":"New Delhi","name":"43","pin":"110039","address":"E-53 SECTOR-4 BAWANA INDUSTRIAL AREA NEW DELHI","country":"India","contact_person":"Debanjan Dey","email":"dmgsalesindia@gmail.com","registered_name":"DMGIndia"} 
RESPONSE: {"data":{"name":"41"},"success":false,"error":"ClientWarehouse already exists"}

 -----------------------------------------------------------------------3------------------------------------------------------------------------------------------------------------------REQUEST: {"phone":"9818087836","city":"New Delhi","name":"43","pin":"110039","address":"E-53 SECTOR-4 BAWANA INDUSTRIAL AREA NEW DELHI","country":"India","contact_person":"Debanjan Dey","email":"dmgsalesindia@gmail.com","registered_name":"DMGIndia"} 
RESPONSE: {"data":{"name":"23"},"success":false,"error":"ClientWarehouse already exists"}

 -----------------------------------------------------------------------4------------------------------------------------------------------------------------------------------------------REQUEST: {"phone":"9818087836","city":"New Delhi","name":"43","pin":"110039","address":"E-53 SECTOR-4 BAWANA INDUSTRIAL AREA NEW DELHI","country":"India","contact_person":"Debanjan Dey","email":"dmgsalesindia@gmail.com","registered_name":"DMGIndia"} 
RESPONSE: {"data":{"name":"39"},"success":false,"error":"ClientWarehouse already exists"}

 -----------------------------------------------------------------------5------------------------------------------------------------------------------------------------------------------REQUEST: {"phone":"9818087836","city":"New Delhi","name":"43","pin":"110039","address":"E-53 SECTOR-4 BAWANA INDUSTRIAL AREA NEW DELHI","country":"India","contact_person":"Debanjan Dey","email":"dmgsalesindia@gmail.com","registered_name":"DMGIndia"} 
RESPONSE: {"data":{"name":"36"},"success":false,"error":"ClientWarehouse already exists"}

 -----------------------------------------------------------------------6------------------------------------------------------------------------------------------------------------------REQUEST: {"phone":"9818087836","city":"New Delhi","name":"43","pin":"110039","address":"E-53 SECTOR-4 BAWANA INDUSTRIAL AREA NEW DELHI","country":"India","contact_person":"Debanjan Dey","email":"dmgsalesindia@gmail.com","registered_name":"DMGIndia"} 
RESPONSE: {"data":{"name":"28"},"success":false,"error":"ClientWarehouse already exists"}

 -----------------------------------------------------------------------7------------------------------------------------------------------------------------------------------------------REQUEST: {"phone":"9818087836","city":"New Delhi","name":"43","pin":"110039","address":"E-53 SECTOR-4 BAWANA INDUSTRIAL AREA NEW DELHI","country":"India","contact_person":"Debanjan Dey","email":"dmgsalesindia@gmail.com","registered_name":"DMGIndia"} 
RESPONSE: {"data":{"name":"22"},"success":false,"error":"ClientWarehouse already exists"}

 -----------------------------------------------------------------------8------------------------------------------------------------------------------------------------------------------REQUEST: {"phone":"9818087836","city":"New Delhi","name":"43","pin":"110039","address":"E-53 SECTOR-4 BAWANA INDUSTRIAL AREA NEW DELHI","country":"India","contact_person":"Debanjan Dey","email":"dmgsalesindia@gmail.com","registered_name":"DMGIndia"} 
RESPONSE: {"data":{"name":"43"},"success":false,"error":"ClientWarehouse already exists"}

 -----------------------------------------------------------------------9------------------------------------------------------------------------------------------------------------------REQUEST: {"phone":"9818087836","city":"New Delhi","name":"43","pin":"110039","address":"E-53 SECTOR-4 BAWANA INDUSTRIAL AREA NEW DELHI","country":"India","contact_person":"Debanjan Dey","email":"dmgsalesindia@gmail.com","registered_name":"DMGIndia"} 
RESPONSE: {"data":{"name":"22"},"success":false,"error":"ClientWarehouse already exists"}

 -----------------------------------------------------------------------1------------------------------------------------------------------------------------------------------------------REQUEST: {"phone":"9818087836","city":"New Delhi","name":"43","pin":"110039","address":"E-53 SECTOR-4 BAWANA INDUSTRIAL AREA NEW DELHI","country":"India","contact_person":"Debanjan Dey","email":"dmgsalesindia@gmail.com","registered_name":"DMGIndia"} 
RESPONSE: {"data":{"name":"29"},"success":false,"error":"ClientWarehouse already exists"}

 -----------------------------------------------------------------------2------------------------------------------------------------------------------------------------------------------REQUEST: {"phone":"9818087836","city":"New Delhi","name":"43","pin":"110039","address":"E-53 SECTOR-4 BAWANA INDUSTRIAL AREA NEW DELHI","country":"India","contact_person":"Debanjan Dey","email":"dmgsalesindia@gmail.com","registered_name":"DMGIndia"} 
RESPONSE: {"data":{"name":"43"},"success":false,"error":"ClientWarehouse already exists"}

 -----------------------------------------------------------------------3------------------------------------------------------------------------------------------------------------------REQUEST: {"phone":"9818087836","city":"New Delhi","name":"43","pin":"110039","address":"E-53 SECTOR-4 BAWANA INDUSTRIAL AREA NEW DELHI","country":"India","contact_person":"Debanjan Dey","email":"dmgsalesindia@gmail.com","registered_name":"DMGIndia"} 
RESPONSE: {"data":{"name":"39"},"success":false,"error":"ClientWarehouse already exists"}

 -----------------------------------------------------------------------4------------------------------------------------------------------------------------------------------------------REQUEST: {"phone":"9818087836","city":"New Delhi","name":"43","pin":"110039","address":"E-53 SECTOR-4 BAWANA INDUSTRIAL AREA NEW DELHI","country":"India","contact_person":"Debanjan Dey","email":"dmgsalesindia@gmail.com","registered_name":"DMGIndia"} 
RESPONSE: {"data":{"name":"36"},"success":false,"error":"ClientWarehouse already exists"}

 -----------------------------------------------------------------------5------------------------------------------------------------------------------------------------------------------REQUEST: {"phone":"9818087836","city":"New Delhi","name":"43","pin":"110039","address":"E-53 SECTOR-4 BAWANA INDUSTRIAL AREA NEW DELHI","country":"India","contact_person":"Debanjan Dey","email":"dmgsalesindia@gmail.com","registered_name":"DMGIndia"} 
RESPONSE: {"data":{"name":"28"},"success":false,"error":"ClientWarehouse already exists"}

 -----------------------------------------------------------------------6------------------------------------------------------------------------------------------------------------------REQUEST: {"phone":"9818087836","city":"New Delhi","name":"43","pin":"110039","address":"E-53 SECTOR-4 BAWANA INDUSTRIAL AREA NEW DELHI","country":"India","contact_person":"Debanjan Dey","email":"dmgsalesindia@gmail.com","registered_name":"DMGIndia"} 
RESPONSE: {"data":{"name":"23"},"success":false,"error":"ClientWarehouse already exists"}

 -----------------------------------------------------------------------7------------------------------------------------------------------------------------------------------------------REQUEST: {"phone":"9818087836","city":"New Delhi","name":"43","pin":"110039","address":"E-53 SECTOR-4 BAWANA INDUSTRIAL AREA NEW DELHI","country":"India","contact_person":"Debanjan Dey","email":"dmgsalesindia@gmail.com","registered_name":"DMGIndia"} 
RESPONSE: {"data":{"name":"41"},"success":false,"error":"ClientWarehouse already exists"}

 -----------------------------------------------------------------------8------------------------------------------------------------------------------------------------------------------REQUEST: {"phone":"9818087836","city":"New Delhi","name":"43","pin":"110039","address":"E-53 SECTOR-4 BAWANA INDUSTRIAL AREA NEW DELHI","country":"India","contact_person":"Debanjan Dey","email":"dmgsalesindia@gmail.com","registered_name":"DMGIndia"} 
RESPONSE: {"data":{"name":"33"},"success":false,"error":"ClientWarehouse already exists"}

 -----------------------------------------------------------------------9------------------------------------------------------------------------------------------------------------------REQUEST: {"phone":"9818087836","city":"New Delhi","name":"43","pin":"110039","address":"E-53 SECTOR-4 BAWANA INDUSTRIAL AREA NEW DELHI","country":"India","contact_person":"Debanjan Dey","email":"dmgsalesindia@gmail.com","registered_name":"DMGIndia"} 
RESPONSE: {"data":{"name":"43"},"success":false,"error":"ClientWarehouse already exists"}

 -----------------------------------------------------------------------1------------------------------------------------------------------------------------------------------------------REQUEST: {"phone":"9818087836","city":"New Delhi","name":"43","pin":"110039","address":"E-53 SECTOR-4 BAWANA INDUSTRIAL AREA NEW DELHI","country":"India","contact_person":"Debanjan Dey","email":"dmgsalesindia@gmail.com","registered_name":"DMGIndia"} 
RESPONSE: {"data":{"name":"33"},"success":false,"error":"ClientWarehouse already exists"}

 -----------------------------------------------------------------------2------------------------------------------------------------------------------------------------------------------REQUEST: {"phone":"9818087836","city":"New Delhi","name":"43","pin":"110039","address":"E-53 SECTOR-4 BAWANA INDUSTRIAL AREA NEW DELHI","country":"India","contact_person":"Debanjan Dey","email":"dmgsalesindia@gmail.com","registered_name":"DMGIndia"} 
RESPONSE: {"data":{"name":"28"},"success":false,"error":"ClientWarehouse already exists"}

 -----------------------------------------------------------------------3------------------------------------------------------------------------------------------------------------------REQUEST: {"phone":"9818087836","city":"New Delhi","name":"43","pin":"110039","address":"E-53 SECTOR-4 BAWANA INDUSTRIAL AREA NEW DELHI","country":"India","contact_person":"Debanjan Dey","email":"dmgsalesindia@gmail.com","registered_name":"DMGIndia"} 
RESPONSE: {"data":{"name":"23"},"success":false,"error":"ClientWarehouse already exists"}

 -----------------------------------------------------------------------4------------------------------------------------------------------------------------------------------------------REQUEST: {"phone":"9818087836","city":"New Delhi","name":"43","pin":"110039","address":"E-53 SECTOR-4 BAWANA INDUSTRIAL AREA NEW DELHI","country":"India","contact_person":"Debanjan Dey","email":"dmgsalesindia@gmail.com","registered_name":"DMGIndia"} 
RESPONSE: {"data":{"name":"29"},"success":false,"error":"ClientWarehouse already exists"}

 -----------------------------------------------------------------------5------------------------------------------------------------------------------------------------------------------REQUEST: {"phone":"9818087836","city":"New Delhi","name":"43","pin":"110039","address":"E-53 SECTOR-4 BAWANA INDUSTRIAL AREA NEW DELHI","country":"India","contact_person":"Debanjan Dey","email":"dmgsalesindia@gmail.com","registered_name":"DMGIndia"} 
RESPONSE: {"data":{"name":"36"},"success":false,"error":"ClientWarehouse already exists"}

 -----------------------------------------------------------------------6------------------------------------------------------------------------------------------------------------------REQUEST: {"phone":"9818087836","city":"New Delhi","name":"43","pin":"110039","address":"E-53 SECTOR-4 BAWANA INDUSTRIAL AREA NEW DELHI","country":"India","contact_person":"Debanjan Dey","email":"dmgsalesindia@gmail.com","registered_name":"DMGIndia"} 
RESPONSE: {"data":{"name":"41"},"success":false,"error":"ClientWarehouse already exists"}

 -----------------------------------------------------------------------7------------------------------------------------------------------------------------------------------------------REQUEST: {"phone":"9818087836","city":"New Delhi","name":"43","pin":"110039","address":"E-53 SECTOR-4 BAWANA INDUSTRIAL AREA NEW DELHI","country":"India","contact_person":"Debanjan Dey","email":"dmgsalesindia@gmail.com","registered_name":"DMGIndia"} 
RESPONSE: {"data":{"name":"39"},"success":false,"error":"ClientWarehouse already exists"}

 -----------------------------------------------------------------------8------------------------------------------------------------------------------------------------------------------REQUEST: {"phone":"9818087836","city":"New Delhi","name":"43","pin":"110039","address":"E-53 SECTOR-4 BAWANA INDUSTRIAL AREA NEW DELHI","country":"India","contact_person":"Debanjan Dey","email":"dmgsalesindia@gmail.com","registered_name":"DMGIndia"} 
RESPONSE: {"data":{"name":"22"},"success":false,"error":"ClientWarehouse already exists"}

 -----------------------------------------------------------------------9------------------------------------------------------------------------------------------------------------------REQUEST: {"phone":"9818087836","city":"New Delhi","name":"43","pin":"110039","address":"E-53 SECTOR-4 BAWANA INDUSTRIAL AREA NEW DELHI","country":"India","contact_person":"Debanjan Dey","email":"dmgsalesindia@gmail.com","registered_name":"DMGIndia"} 
RESPONSE: {"data":{"name":"29"},"success":false,"error":"ClientWarehouse already exists"}

 -----------------------------------------------------------------------1------------------------------------------------------------------------------------------------------------------REQUEST: {"phone":"9818087836","city":"New Delhi","name":"43","pin":"110039","address":"E-53 SECTOR-4 BAWANA INDUSTRIAL AREA NEW DELHI","country":"India","contact_person":"Debanjan Dey","email":"dmgsalesindia@gmail.com","registered_name":"DMGIndia"} 
RESPONSE: {"data":{"name":"28"},"success":false,"error":"ClientWarehouse already exists"}

 -----------------------------------------------------------------------2------------------------------------------------------------------------------------------------------------------REQUEST: {"phone":"9818087836","city":"New Delhi","name":"43","pin":"110039","address":"E-53 SECTOR-4 BAWANA INDUSTRIAL AREA NEW DELHI","country":"India","contact_person":"Debanjan Dey","email":"dmgsalesindia@gmail.com","registered_name":"DMGIndia"} 
RESPONSE: {"data":{"name":"23"},"success":false,"error":"ClientWarehouse already exists"}

 -----------------------------------------------------------------------3------------------------------------------------------------------------------------------------------------------REQUEST: {"phone":"9818087836","city":"New Delhi","name":"43","pin":"110039","address":"E-53 SECTOR-4 BAWANA INDUSTRIAL AREA NEW DELHI","country":"India","contact_person":"Debanjan Dey","email":"dmgsalesindia@gmail.com","registered_name":"DMGIndia"} 
RESPONSE: {"data":{"name":"36"},"success":false,"error":"ClientWarehouse already exists"}

 -----------------------------------------------------------------------4------------------------------------------------------------------------------------------------------------------REQUEST: {"phone":"9818087836","city":"New Delhi","name":"43","pin":"110039","address":"E-53 SECTOR-4 BAWANA INDUSTRIAL AREA NEW DELHI","country":"India","contact_person":"Debanjan Dey","email":"dmgsalesindia@gmail.com","registered_name":"DMGIndia"} 
RESPONSE: {"data":{"name":"39"},"success":false,"error":"ClientWarehouse already exists"}

 -----------------------------------------------------------------------5------------------------------------------------------------------------------------------------------------------REQUEST: {"phone":"9818087836","city":"New Delhi","name":"43","pin":"110039","address":"E-53 SECTOR-4 BAWANA INDUSTRIAL AREA NEW DELHI","country":"India","contact_person":"Debanjan Dey","email":"dmgsalesindia@gmail.com","registered_name":"DMGIndia"} 
RESPONSE: {"data":{"name":"33"},"success":false,"error":"ClientWarehouse already exists"}

 -----------------------------------------------------------------------6------------------------------------------------------------------------------------------------------------------REQUEST: {"phone":"9818087836","city":"New Delhi","name":"43","pin":"110039","address":"E-53 SECTOR-4 BAWANA INDUSTRIAL AREA NEW DELHI","country":"India","contact_person":"Debanjan Dey","email":"dmgsalesindia@gmail.com","registered_name":"DMGIndia"} 
RESPONSE: {"data":{"name":"22"},"success":false,"error":"ClientWarehouse already exists"}

 -----------------------------------------------------------------------7------------------------------------------------------------------------------------------------------------------REQUEST: {"phone":"9818087836","city":"New Delhi","name":"43","pin":"110039","address":"E-53 SECTOR-4 BAWANA INDUSTRIAL AREA NEW DELHI","country":"India","contact_person":"Debanjan Dey","email":"dmgsalesindia@gmail.com","registered_name":"DMGIndia"} 
RESPONSE: {"data":{"name":"41"},"success":false,"error":"ClientWarehouse already exists"}

 -----------------------------------------------------------------------8------------------------------------------------------------------------------------------------------------------REQUEST: {"phone":"9818087836","city":"New Delhi","name":"43","pin":"110039","address":"E-53 SECTOR-4 BAWANA INDUSTRIAL AREA NEW DELHI","country":"India","contact_person":"Debanjan Dey","email":"dmgsalesindia@gmail.com","registered_name":"DMGIndia"} 
RESPONSE: {"data":{"name":"43"},"success":false,"error":"ClientWarehouse already exists"}

 -----------------------------------------------------------------------9------------------------------------------------------------------------------------------------------------------REQUEST: {"phone":"9818087836","city":"New Delhi","name":"43","pin":"110039","address":"E-53 SECTOR-4 BAWANA INDUSTRIAL AREA NEW DELHI","country":"India","contact_person":"Debanjan Dey","email":"dmgsalesindia@gmail.com","registered_name":"DMGIndia"} 
RESPONSE: {"data":{"name":"29"},"success":false,"error":"ClientWarehouse already exists"}

 -----------------------------------------------------------------------1------------------------------------------------------------------------------------------------------------------REQUEST: {"phone":"9818087836","city":"New Delhi","name":"43","pin":"110039","address":"E-53 SECTOR-4 BAWANA INDUSTRIAL AREA NEW DELHI","country":"India","contact_person":"Debanjan Dey","email":"dmgsalesindia@gmail.com","registered_name":"DMGIndia"} 
RESPONSE: {"data":{"name":"39"},"success":false,"error":"ClientWarehouse already exists"}

 -----------------------------------------------------------------------2------------------------------------------------------------------------------------------------------------------REQUEST: {"phone":"9818087836","city":"New Delhi","name":"43","pin":"110039","address":"E-53 SECTOR-4 BAWANA INDUSTRIAL AREA NEW DELHI","country":"India","contact_person":"Debanjan Dey","email":"dmgsalesindia@gmail.com","registered_name":"DMGIndia"} 
RESPONSE: {"data":{"name":"23"},"success":false,"error":"ClientWarehouse already exists"}

 -----------------------------------------------------------------------3------------------------------------------------------------------------------------------------------------------REQUEST: {"phone":"9818087836","city":"New Delhi","name":"43","pin":"110039","address":"E-53 SECTOR-4 BAWANA INDUSTRIAL AREA NEW DELHI","country":"India","contact_person":"Debanjan Dey","email":"dmgsalesindia@gmail.com","registered_name":"DMGIndia"} 
RESPONSE: {"data":{"name":"33"},"success":false,"error":"ClientWarehouse already exists"}

 -----------------------------------------------------------------------4------------------------------------------------------------------------------------------------------------------REQUEST: {"phone":"9818087836","city":"New Delhi","name":"43","pin":"110039","address":"E-53 SECTOR-4 BAWANA INDUSTRIAL AREA NEW DELHI","country":"India","contact_person":"Debanjan Dey","email":"dmgsalesindia@gmail.com","registered_name":"DMGIndia"} 
RESPONSE: {"data":{"name":"36"},"success":false,"error":"ClientWarehouse already exists"}

 -----------------------------------------------------------------------5------------------------------------------------------------------------------------------------------------------REQUEST: {"phone":"9818087836","city":"New Delhi","name":"43","pin":"110039","address":"E-53 SECTOR-4 BAWANA INDUSTRIAL AREA NEW DELHI","country":"India","contact_person":"Debanjan Dey","email":"dmgsalesindia@gmail.com","registered_name":"DMGIndia"} 
RESPONSE: {"data":{"name":"28"},"success":false,"error":"ClientWarehouse already exists"}

 -----------------------------------------------------------------------6------------------------------------------------------------------------------------------------------------------REQUEST: {"phone":"9818087836","city":"New Delhi","name":"43","pin":"110039","address":"E-53 SECTOR-4 BAWANA INDUSTRIAL AREA NEW DELHI","country":"India","contact_person":"Debanjan Dey","email":"dmgsalesindia@gmail.com","registered_name":"DMGIndia"} 
RESPONSE: {"data":{"name":"41"},"success":false,"error":"ClientWarehouse already exists"}

 -----------------------------------------------------------------------7------------------------------------------------------------------------------------------------------------------REQUEST: {"phone":"9818087836","city":"New Delhi","name":"43","pin":"110039","address":"E-53 SECTOR-4 BAWANA INDUSTRIAL AREA NEW DELHI","country":"India","contact_person":"Debanjan Dey","email":"dmgsalesindia@gmail.com","registered_name":"DMGIndia"} 
RESPONSE: {"data":{"name":"43"},"success":false,"error":"ClientWarehouse already exists"}

 -----------------------------------------------------------------------8------------------------------------------------------------------------------------------------------------------REQUEST: {"phone":"9818087836","city":"New Delhi","name":"43","pin":"110039","address":"E-53 SECTOR-4 BAWANA INDUSTRIAL AREA NEW DELHI","country":"India","contact_person":"Debanjan Dey","email":"dmgsalesindia@gmail.com","registered_name":"DMGIndia"} 
RESPONSE: {"data":{"name":"22"},"success":false,"error":"ClientWarehouse already exists"}

 -----------------------------------------------------------------------9------------------------------------------------------------------------------------------------------------------REQUEST: {"phone":"9818087836","city":"New Delhi","name":"43","pin":"110039","address":"E-53 SECTOR-4 BAWANA INDUSTRIAL AREA NEW DELHI","country":"India","contact_person":"Debanjan Dey","email":"dmgsalesindia@gmail.com","registered_name":"DMGIndia"} 
RESPONSE: {"data":{"name":"23"},"success":false,"error":"ClientWarehouse already exists"}

 -----------------------------------------------------------------------1------------------------------------------------------------------------------------------------------------------REQUEST: {"phone":"9818087836","city":"New Delhi","name":"43","pin":"110039","address":"E-53 SECTOR-4 BAWANA INDUSTRIAL AREA NEW DELHI","country":"India","contact_person":"Debanjan Dey","email":"dmgsalesindia@gmail.com","registered_name":"DMGIndia"} 
RESPONSE: {"data":{"name":"39"},"success":false,"error":"ClientWarehouse already exists"}

 -----------------------------------------------------------------------2------------------------------------------------------------------------------------------------------------------REQUEST: {"phone":"9818087836","city":"New Delhi","name":"43","pin":"110039","address":"E-53 SECTOR-4 BAWANA INDUSTRIAL AREA NEW DELHI","country":"India","contact_person":"Debanjan Dey","email":"dmgsalesindia@gmail.com","registered_name":"DMGIndia"} 
RESPONSE: {"data":{"name":"41"},"success":false,"error":"ClientWarehouse already exists"}

 -----------------------------------------------------------------------3------------------------------------------------------------------------------------------------------------------REQUEST: {"phone":"9818087836","city":"New Delhi","name":"43","pin":"110039","address":"E-53 SECTOR-4 BAWANA INDUSTRIAL AREA NEW DELHI","country":"India","contact_person":"Debanjan Dey","email":"dmgsalesindia@gmail.com","registered_name":"DMGIndia"} 
RESPONSE: {"data":{"name":"33"},"success":false,"error":"ClientWarehouse already exists"}

 -----------------------------------------------------------------------4------------------------------------------------------------------------------------------------------------------REQUEST: {"phone":"9818087836","city":"New Delhi","name":"43","pin":"110039","address":"E-53 SECTOR-4 BAWANA INDUSTRIAL AREA NEW DELHI","country":"India","contact_person":"Debanjan Dey","email":"dmgsalesindia@gmail.com","registered_name":"DMGIndia"} 
RESPONSE: {"data":{"name":"29"},"success":false,"error":"ClientWarehouse already exists"}

 -----------------------------------------------------------------------5------------------------------------------------------------------------------------------------------------------REQUEST: {"phone":"9818087836","city":"New Delhi","name":"43","pin":"110039","address":"E-53 SECTOR-4 BAWANA INDUSTRIAL AREA NEW DELHI","country":"India","contact_person":"Debanjan Dey","email":"dmgsalesindia@gmail.com","registered_name":"DMGIndia"} 
RESPONSE: {"data":{"name":"43"},"success":false,"error":"ClientWarehouse already exists"}

 -----------------------------------------------------------------------6------------------------------------------------------------------------------------------------------------------REQUEST: {"phone":"9818087836","city":"New Delhi","name":"43","pin":"110039","address":"E-53 SECTOR-4 BAWANA INDUSTRIAL AREA NEW DELHI","country":"India","contact_person":"Debanjan Dey","email":"dmgsalesindia@gmail.com","registered_name":"DMGIndia"} 
RESPONSE: {"data":{"name":"36"},"success":false,"error":"ClientWarehouse already exists"}

 -----------------------------------------------------------------------7------------------------------------------------------------------------------------------------------------------REQUEST: {"phone":"9818087836","city":"New Delhi","name":"43","pin":"110039","address":"E-53 SECTOR-4 BAWANA INDUSTRIAL AREA NEW DELHI","country":"India","contact_person":"Debanjan Dey","email":"dmgsalesindia@gmail.com","registered_name":"DMGIndia"} 
RESPONSE: {"data":{"name":"22"},"success":false,"error":"ClientWarehouse already exists"}

 -----------------------------------------------------------------------8------------------------------------------------------------------------------------------------------------------REQUEST: {"phone":"9818087836","city":"New Delhi","name":"43","pin":"110039","address":"E-53 SECTOR-4 BAWANA INDUSTRIAL AREA NEW DELHI","country":"India","contact_person":"Debanjan Dey","email":"dmgsalesindia@gmail.com","registered_name":"DMGIndia"} 
RESPONSE: {"data":{"name":"28"},"success":false,"error":"ClientWarehouse already exists"}

 -----------------------------------------------------------------------9------------------------------------------------------------------------------------------------------------------REQUEST: {"phone":"9818087836","city":"New Delhi","name":"43","pin":"110039","address":"E-53 SECTOR-4 BAWANA INDUSTRIAL AREA NEW DELHI","country":"India","contact_person":"Debanjan Dey","email":"dmgsalesindia@gmail.com","registered_name":"DMGIndia"} 
RESPONSE: {"data":{"name":"41"},"success":false,"error":"ClientWarehouse already exists"}

 -----------------------------------------------------------------------1------------------------------------------------------------------------------------------------------------------REQUEST: {"phone":"9818087836","city":"New Delhi","name":"43","pin":"110039","address":"E-53 SECTOR-4 BAWANA INDUSTRIAL AREA NEW DELHI","country":"India","contact_person":"Debanjan Dey","email":"dmgsalesindia@gmail.com","registered_name":"DMGIndia"} 
RESPONSE: {"data":{"name":"39"},"success":false,"error":"ClientWarehouse already exists"}

 -----------------------------------------------------------------------2------------------------------------------------------------------------------------------------------------------REQUEST: {"phone":"9818087836","city":"New Delhi","name":"43","pin":"110039","address":"E-53 SECTOR-4 BAWANA INDUSTRIAL AREA NEW DELHI","country":"India","contact_person":"Debanjan Dey","email":"dmgsalesindia@gmail.com","registered_name":"DMGIndia"} 
RESPONSE: {"data":{"name":"43"},"success":false,"error":"ClientWarehouse already exists"}

 -----------------------------------------------------------------------3------------------------------------------------------------------------------------------------------------------REQUEST: {"phone":"9818087836","city":"New Delhi","name":"43","pin":"110039","address":"E-53 SECTOR-4 BAWANA INDUSTRIAL AREA NEW DELHI","country":"India","contact_person":"Debanjan Dey","email":"dmgsalesindia@gmail.com","registered_name":"DMGIndia"} 
RESPONSE: {"data":{"name":"28"},"success":false,"error":"ClientWarehouse already exists"}

 -----------------------------------------------------------------------4------------------------------------------------------------------------------------------------------------------REQUEST: {"phone":"9818087836","city":"New Delhi","name":"43","pin":"110039","address":"E-53 SECTOR-4 BAWANA INDUSTRIAL AREA NEW DELHI","country":"India","contact_person":"Debanjan Dey","email":"dmgsalesindia@gmail.com","registered_name":"DMGIndia"} 
RESPONSE: {"data":{"name":"22"},"success":false,"error":"ClientWarehouse already exists"}

 -----------------------------------------------------------------------5------------------------------------------------------------------------------------------------------------------REQUEST: {"phone":"9818087836","city":"New Delhi","name":"43","pin":"110039","address":"E-53 SECTOR-4 BAWANA INDUSTRIAL AREA NEW DELHI","country":"India","contact_person":"Debanjan Dey","email":"dmgsalesindia@gmail.com","registered_name":"DMGIndia"} 
RESPONSE: {"data":{"name":"33"},"success":false,"error":"ClientWarehouse already exists"}

 -----------------------------------------------------------------------6------------------------------------------------------------------------------------------------------------------REQUEST: {"phone":"9818087836","city":"New Delhi","name":"43","pin":"110039","address":"E-53 SECTOR-4 BAWANA INDUSTRIAL AREA NEW DELHI","country":"India","contact_person":"Debanjan Dey","email":"dmgsalesindia@gmail.com","registered_name":"DMGIndia"} 
RESPONSE: {"data":{"name":"23"},"success":false,"error":"ClientWarehouse already exists"}

 -----------------------------------------------------------------------7------------------------------------------------------------------------------------------------------------------REQUEST: {"phone":"9818087836","city":"New Delhi","name":"43","pin":"110039","address":"E-53 SECTOR-4 BAWANA INDUSTRIAL AREA NEW DELHI","country":"India","contact_person":"Debanjan Dey","email":"dmgsalesindia@gmail.com","registered_name":"DMGIndia"} 
RESPONSE: {"data":{"name":"29"},"success":false,"error":"ClientWarehouse already exists"}

 -----------------------------------------------------------------------8------------------------------------------------------------------------------------------------------------------REQUEST: {"phone":"9818087836","city":"New Delhi","name":"43","pin":"110039","address":"E-53 SECTOR-4 BAWANA INDUSTRIAL AREA NEW DELHI","country":"India","contact_person":"Debanjan Dey","email":"dmgsalesindia@gmail.com","registered_name":"DMGIndia"} 
RESPONSE: {"data":{"name":"36"},"success":false,"error":"ClientWarehouse already exists"}

 -----------------------------------------------------------------------9------------------------------------------------------------------------------------------------------------------